<?xml version="1.0" encoding="UTF-8" standalone="no"?>
<!-- Created with Inkscape (http://www.inkscape.org/) -->

<svg
   width="116.84251mm"
   height="30.427082mm"
   viewBox="0 0 116.8425 30.427082"
   version="1.1"
   id="svg4151"
   inkscape:version="1.2.2 (732a01da63, 2022-12-09)"
   sodipodi:docname="txt_LivretAccueil.svg"
   xmlns:inkscape="http://www.inkscape.org/namespaces/inkscape"
   xmlns:sodipodi="http://sodipodi.sourceforge.net/DTD/sodipodi-0.dtd"
   xmlns="http://www.w3.org/2000/svg"
   xmlns:svg="http://www.w3.org/2000/svg">
  <sodipodi:namedview
     id="namedview4153"
     pagecolor="#ffffff"
     bordercolor="#666666"
     borderopacity="1.0"
     inkscape:showpageshadow="2"
     inkscape:pageopacity="0.0"
     inkscape:pagecheckerboard="0"
     inkscape:deskcolor="#d1d1d1"
     inkscape:document-units="mm"
     showgrid="false"
     inkscape:zoom="1.0066639"
     inkscape:cx="127.64936"
     inkscape:cy="-5.9602813"
     inkscape:window-width="1366"
     inkscape:window-height="705"
     inkscape:window-x="-8"
     inkscape:window-y="-8"
     inkscape:window-maximized="1"
     inkscape:current-layer="text1245" />
  <defs
     id="defs4148">
    <rect
       x="188.74225"
       y="349.66986"
       width="305.96112"
       height="109.27183"
       id="rect4550" />
    <rect
       x="150.9938"
       y="496.69012"
       width="492.71661"
       height="81.457184"
       id="rect4544" />
    <clipPath
       id="clip0">
      <rect
         x="599"
         y="557"
         width="215"
         height="115"
         id="rect4272" />
    </clipPath>
  </defs>
  <g
     inkscape:label="Calque 1"
     inkscape:groupmode="layer"
     id="layer1"
     transform="translate(-16.238717,-85.188223)">
    <g
       clip-path="url(#clip0)"
       transform="matrix(0.63439345,0,0,0.26458333,-363.76296,-62.184692)"
       id="g4309">
      <path
         d="M 599,557 H 783.17988 V 672 H 599 Z"
         fill="#a9d33b"
         fill-opacity="0.992"
         id="path4277"
         style="stroke-width:0.925555" />
      <text
         xml:space="preserve"
         transform="translate(537.62533,235.02876)"
         id="text4542"
         style="font-size:32px;line-height:1.25;font-family:sans-serif;white-space:pre;shape-inside:url(#rect4544)"><tspan
           x="150.99414"
           y="525.88402"
           id="tspan1527">Bourses aux éq</tspan></text>
    </g>
    <g
       aria-label="BOURSE  AUX ÉQUIPIERS"
       transform="matrix(0.21074181,0,0,0.21074181,-18.654471,21.919375)"
       id="text4548"
       style="font-size:32px;line-height:1.25;font-family:Futura-Bold;-inkscape-font-specification:'Futura-Bold, Normal';white-space:pre;shape-inside:url(#rect4550);fill:#ffffff">
      <g
         id="g4609"
         transform="translate(-0.8818857,2.6456571)">
        <g
           aria-label="LIVRET D'ACCUEIL"
           id="text1245"
           style="font-size:53.5674px;font-family:sans-serif;stroke-width:1.25549">
          <path
             d="m 216.54645,349.5428 v 31.49763 h 12.58834 v 8.89219 H 206.04724 V 349.5428 h 10.49921 z"
             style="font-family:Futura-Bold"
             id="path1466" />
          <path
             d="m 243.06236,349.5428 v 40.38982 H 232.56315 V 349.5428 h 10.49921 z"
             style="font-family:Futura-Bold"
             id="path1468" />
          <path
             d="m 257.09699,349.5428 9.74927,24.53387 9.80283,-24.53387 h 11.40986 l -17.24871,40.38982 H 262.668 L 245.68713,349.5428 h 11.40986 z"
             style="font-family:Futura-Bold"
             id="path1470" />
          <path
             d="m 311.57502,373.38029 12.69547,16.55233 h -13.07044 l -9.90997,-15.53455 h -0.10714 v 15.53455 H 290.68373 V 349.5428 h 15.69525 q 5.99955,0.0536 10.0171,3.05334 4.01756,2.94621 4.01756,9.42786 0,4.17826 -2.3034,7.44587 -2.24983,3.21404 -6.53522,3.96399 z m -10.39208,-15.80238 v 10.07067 h 1.01778 q 0.26784,0.0536 0.53568,0.0536 0.26783,0 0.4821,0 2.35697,-0.10714 4.28539,-1.07135 1.982,-1.01778 1.982,-3.96399 0,-2.94621 -1.982,-3.91042 -1.92842,-1.01778 -4.28539,-1.12492 -0.21427,0 -0.4821,0 -0.26784,0 -0.53568,0 l -1.01778,-0.0536 z"
             style="font-family:Futura-Bold"
             id="path1472" />
          <path
             d="m 350.09,358.43498 h -12.48121 v 6.7495 h 11.8384 v 8.89219 h -11.8384 v 6.96376 H 350.09 v 8.89219 H 327.10958 V 349.5428 H 350.09 v 8.89218 z"
             style="font-family:Futura-Bold"
             id="path1474" />
          <path
             d="m 372.64183,358.43498 v 31.49764 h -10.49921 v -31.49764 h -8.67792 v -8.89218 h 27.85505 v 8.89218 h -8.67792 z"
             style="font-family:Futura-Bold"
             id="path1476" />
          <path
             d="M 403.49673,389.93262 V 349.5428 h 14.89174 q 8.46365,0.0536 14.4632,5.89241 6.05312,5.83885 6.05312,14.35606 0,8.51722 -6.05312,14.35607 -6.05312,5.78528 -14.4632,5.78528 h -14.89174 z m 10.49921,-31.49764 v 22.60545 h 2.35697 q 4.71393,0.0536 8.14225,-2.6248 3.48188,-2.73194 3.48188,-8.62436 0,-5.4103 -3.21405,-8.35651 -3.21404,-2.94621 -8.30294,-2.94621 l -2.46411,-0.0536 z"
             style="font-family:Futura-Bold"
             id="path1478" />
          <path
             d="m 442.49383,349.5428 h 9.10646 l -1.44632,17.73081 h -6.21382 l -1.44632,-17.73081 z"
             style="font-family:Futura-Bold"
             id="path1480" />
          <path
             d="m 481.91945,382.91529 h -14.4632 l -2.7855,7.01733 h -11.14202 l 15.53454,-40.38982 h 11.46343 l 15.21314,40.38982 h -11.19559 l -2.6248,-7.01733 z m -2.83907,-8.03511 -4.28539,-12.85618 h -0.10714 l -4.33896,12.85618 h 8.73149 z"
             style="font-family:Futura-Bold"
             id="path1482" />
          <path
             d="m 527.88028,350.50701 v 12.58834 q -1.60703,-2.1427 -4.07113,-3.26761 -2.4641,-1.12492 -5.14247,-1.12492 -4.82106,0 -7.82084,3.26761 -2.94621,3.21405 -2.94621,7.92798 0,4.7675 2.99978,7.87441 3.05334,3.10691 7.92797,3.10691 2.57124,0 4.98177,-1.12492 2.41054,-1.17848 4.07113,-3.16048 v 12.53478 q -1.44632,0.4821 -2.73194,0.80351 -1.28562,0.37497 -2.51767,0.64281 -0.96421,0.21427 -1.98199,0.3214 -0.96422,0.10714 -2.03557,0.10714 -4.23182,0 -8.14224,-1.49989 -3.85685,-1.55346 -7.01733,-4.39253 -3.32118,-2.99977 -4.9282,-6.85663 -1.55346,-3.91042 -1.55346,-8.41008 0,-4.12469 1.49989,-7.98154 1.55346,-3.85685 4.4461,-6.80306 2.89264,-2.94621 6.80306,-4.66037 3.91042,-1.76772 8.08867,-1.87485 0.10714,0 0.21427,0 0.16071,0 0.26784,0 2.51767,0 4.87463,0.53567 2.41054,0.53567 4.71394,1.49989 z"
             style="font-family:Futura-Bold"
             id="path1484" />
          <path
             d="m 563.23477,350.50701 v 12.58834 q -1.60702,-2.1427 -4.07112,-3.26761 -2.46411,-1.12492 -5.14248,-1.12492 -4.82106,0 -7.82084,3.26761 -2.9462,3.21405 -2.9462,7.92798 0,4.7675 2.99977,7.87441 3.05334,3.10691 7.92798,3.10691 2.57123,0 4.98177,-1.12492 2.41053,-1.17848 4.07112,-3.16048 v 12.53478 q -1.44632,0.4821 -2.73194,0.80351 -1.28562,0.37497 -2.51767,0.64281 -0.96421,0.21427 -1.98199,0.3214 -0.96421,0.10714 -2.03556,0.10714 -4.23183,0 -8.14225,-1.49989 -3.85685,-1.55346 -7.01733,-4.39253 -3.32118,-2.99977 -4.9282,-6.85663 -1.55345,-3.91042 -1.55345,-8.41008 0,-4.12469 1.49988,-7.98154 1.55346,-3.85685 4.4461,-6.80306 2.89264,-2.94621 6.80306,-4.66037 3.91042,-1.76772 8.08868,-1.87485 0.10713,0 0.21427,0 0.1607,0 0.26783,0 2.51767,0 4.87464,0.53567 2.41053,0.53567 4.71393,1.49989 z"
             style="font-family:Futura-Bold"
             id="path1486" />
          <path
             d="m 594.25027,349.5428 h 10.49921 v 22.71257 q 0,3.96399 -0.64281,7.66014 -0.58924,3.69615 -3.58901,6.64236 -1.92843,1.92843 -4.6068,2.94621 -2.6248,0.96421 -5.41031,1.28562 -0.85708,0.10713 -1.71416,0.1607 -0.85707,0.0536 -1.66058,0.0536 -0.80352,0 -1.66059,-0.0536 -0.85708,-0.0536 -1.71416,-0.1607 -2.78551,-0.32141 -5.46388,-1.28562 -2.6248,-1.01778 -4.55323,-2.94621 -2.99977,-2.94621 -3.64258,-6.64236 -0.58924,-3.69615 -0.58924,-7.60657 V 349.5428 h 10.49921 v 21.26625 q 0,0.37498 0,0.69638 0,0.26784 0,0.58924 0.0536,3.64259 1.23205,6.69593 1.23205,3.05334 5.89242,3.05334 4.66036,0 5.83884,-3.05334 1.23205,-3.05334 1.28562,-6.69593 0,-0.3214 0,-0.58924 0,-0.3214 0,-0.64281 V 349.5428 Z"
             style="font-family:Futura-Bold"
             id="path1488" />
          <path
             d="m 634.37226,358.43498 h -12.4812 v 6.7495 h 11.83839 v 8.89219 h -11.83839 v 6.96376 h 12.4812 v 8.89219 H 611.39185 V 349.5428 h 22.98041 v 8.89218 z"
             style="font-family:Futura-Bold"
             id="path1490" />
          <path
             d="m 651.35309,349.5428 v 40.38982 H 640.85388 V 349.5428 h 10.49921 z"
             style="font-family:Futura-Bold"
             id="path1492" />
          <path
             d="m 668.7089,349.5428 v 31.49763 h 12.58834 v 8.89219 H 658.20969 V 349.5428 h 10.49921 z"
             style="font-family:Futura-Bold"
             id="path1494" />
        </g>
      </g>
    </g>
  </g>
</svg>
