<?xml version="1.0" encoding="UTF-8" standalone="no"?>
<svg
   width="740"
   height="396"
   xml:space="preserve"
   overflow="hidden"
   version="1.1"
   id="svg16366"
   sodipodi:docname="txt_AnnonceCourseRS.svg"
   inkscape:version="1.2.2 (732a01da63, 2022-12-09)"
   xmlns:inkscape="http://www.inkscape.org/namespaces/inkscape"
   xmlns:sodipodi="http://sodipodi.sourceforge.net/DTD/sodipodi-0.dtd"
   xmlns="http://www.w3.org/2000/svg"
   xmlns:svg="http://www.w3.org/2000/svg"><sodipodi:namedview
     id="namedview16368"
     pagecolor="#ffffff"
     bordercolor="#666666"
     borderopacity="1.0"
     inkscape:showpageshadow="2"
     inkscape:pageopacity="0.0"
     inkscape:pagecheckerboard="0"
     inkscape:deskcolor="#d1d1d1"
     showgrid="false"
     inkscape:zoom="0.46872609"
     inkscape:cx="296.54846"
     inkscape:cy="238.94552"
     inkscape:window-width="1366"
     inkscape:window-height="705"
     inkscape:window-x="-8"
     inkscape:window-y="-8"
     inkscape:window-maximized="1"
     inkscape:current-layer="text16382-2" /><defs
     id="defs16330"><rect
       x="-313.616"
       y="439.48909"
       width="618.69823"
       height="185.60947"
       id="rect16372" /><clipPath
       id="clip0"><rect
         x="383"
         y="1914"
         width="740"
         height="396"
         id="rect16327" /></clipPath></defs><g
     clip-path="url(#clip0)"
     transform="translate(-383 -1914)"
     id="g16364"><path
       d="M383.7 1914.81 1122.7 1914.81 1122.7 2309.81 383.7 2309.81Z"
       fill="#A9D33B"
       fill-rule="evenodd"
       fill-opacity="0.988235"
       id="path16332" /><text
       xml:space="preserve"
       transform="translate(383,1914)"
       id="text16370"
       style="font-size:32px;line-height:1.25;font-family:sans-serif;white-space:pre;shape-inside:url(#rect16372);fill:#008000" /><g
       id="g16424"
       transform="translate(-1.2959467,-44.739927)"
       style="fill:#ffffff"><g
         aria-label="ANNONCE DE COURSE
"
         id="text16382"
         style="font-size:52.2061px;stroke-width:1.63143"><path
           d="M 478.46505,2124.8426 H 464.3694 l -2.71472,6.839 h -10.85887 l 15.13977,-39.3634 h 11.17211 l 14.82653,39.3634 h -10.91107 l -2.5581,-6.839 z m -2.76693,-7.8309 -4.17648,-12.5294 h -0.10442 l -4.22869,12.5294 h 8.50959 z"
           style="-inkscape-font-specification:Futura-Bold"
           id="path16426" /><path
           d="m 495.1188,2131.6816 v -39.3634 h 10.2324 l 18.74199,24.0671 h 0.10441 v -24.0671 h 10.23239 v 39.3634 H 524.1976 l -18.74199,-24.1192 h -0.10441 v 24.1192 h -10.2324 z"
           style="-inkscape-font-specification:Futura-Bold"
           id="path16428" /><path
           d="m 541.1124,2131.6816 v -39.3634 h 10.2324 l 18.74199,24.0671 h 0.10441 v -24.0671 h 10.23239 v 39.3634 H 570.1912 l -18.74199,-24.1192 h -0.10441 v 24.1192 h -10.2324 z"
           style="-inkscape-font-specification:Futura-Bold"
           id="path16430" /><path
           d="m 606.89212,2091.0131 q 8.50959,0.052 15.13977,5.7427 6.63017,5.6382 6.63017,14.5655 0,9.5537 -6.16032,15.6096 -6.10811,6.0559 -15.60962,6.0559 -9.44931,0 -15.60963,-6.0559 -6.16032,-6.0559 -6.16032,-15.6096 0,-8.9273 6.63018,-14.5655 6.63017,-5.6905 15.13977,-5.6905 z m 0,9.9191 q -4.59414,0.052 -7.88312,3.2368 -3.23678,3.1324 -3.23678,7.2045 0,5.064 3.23678,8.4051 3.28898,3.3412 7.88312,3.3412 4.59414,0 7.83091,-3.3412 3.28899,-3.3411 3.28899,-8.4051 0,-4.0721 -3.28899,-7.2045 -3.23677,-3.1845 -7.83091,-3.1845 z"
           style="-inkscape-font-specification:Futura-Bold"
           id="path16432" /><path
           d="m 633.41277,2131.6816 v -39.3634 h 10.2324 l 18.74199,24.0671 h 0.10441 v -24.0671 h 10.23239 v 39.3634 h -10.23239 l -18.74199,-24.1192 h -0.10441 v 24.1192 h -10.2324 z"
           style="-inkscape-font-specification:Futura-Bold"
           id="path16434" /><path
           d="m 707.54546,2093.258 v 12.2684 q -1.56618,-2.0883 -3.96766,-3.1846 -2.40148,-1.0963 -5.01179,-1.0963 -4.69854,0 -7.62209,3.1846 -2.87133,3.1323 -2.87133,7.7265 0,4.6463 2.92354,7.6743 2.97575,3.0279 7.7265,3.0279 2.5059,0 4.85517,-1.0963 2.34928,-1.1486 3.96766,-3.0802 v 12.2162 q -1.40956,0.4699 -2.66251,0.7831 -1.25294,0.3655 -2.45368,0.6265 -0.93971,0.2088 -1.93163,0.3133 -0.93971,0.1044 -1.98383,0.1044 -4.12428,0 -7.93533,-1.4618 -3.75884,-1.514 -6.839,-4.2809 -3.23678,-2.9236 -4.80296,-6.6824 -1.51398,-3.811 -1.51398,-8.1963 0,-4.0199 1.46177,-7.7788 1.51398,-3.7588 4.33311,-6.6301 2.81913,-2.8714 6.63018,-4.542 3.81104,-1.7228 7.88312,-1.8272 0.10441,0 0.20882,0 0.15662,0 0.26103,0 2.45369,0 4.75076,0.5221 2.34927,0.522 4.59413,1.4618 z"
           style="-inkscape-font-specification:Futura-Bold"
           id="path16436" /><path
           d="M 736.25882,2100.9845 H 724.0948 v 6.5779 h 11.53754 v 8.6662 H 724.0948 v 6.7868 h 12.16402 v 8.6662 H 713.8624 v -39.3634 h 22.39642 v 8.6663 z"
           style="-inkscape-font-specification:Futura-Bold"
           id="path16438" /><path
           d="m 760.48243,2131.6816 v -39.3634 h 14.51329 q 8.24857,0.052 14.09565,5.7427 5.89929,5.6905 5.89929,13.9912 0,8.3008 -5.89929,13.9913 -5.89929,5.6382 -14.09565,5.6382 h -14.51329 z m 10.23239,-30.6971 v 22.0309 h 2.29707 q 4.59414,0.052 7.93533,-2.5581 3.39339,-2.6625 3.39339,-8.4052 0,-5.2728 -3.13236,-8.1441 -3.13237,-2.8713 -8.09195,-2.8713 l -2.40148,-0.052 z"
           style="-inkscape-font-specification:Futura-Bold"
           id="path16440" /><path
           d="m 822.13788,2100.9845 h -12.16403 v 6.5779 h 11.53755 v 8.6662 h -11.53755 v 6.7868 h 12.16403 v 8.6662 h -22.39642 v -39.3634 h 22.39642 v 8.6663 z"
           style="-inkscape-font-specification:Futura-Bold"
           id="path16442" /><path
           d="m 874.50057,2093.258 v 12.2684 q -1.56618,-2.0883 -3.96766,-3.1846 -2.40148,-1.0963 -5.01179,-1.0963 -4.69855,0 -7.62209,3.1846 -2.87133,3.1323 -2.87133,7.7265 0,4.6463 2.92354,7.6743 2.97575,3.0279 7.7265,3.0279 2.50589,0 4.85517,-1.0963 2.34927,-1.1486 3.96766,-3.0802 v 12.2162 q -1.40956,0.4699 -2.66251,0.7831 -1.25294,0.3655 -2.45369,0.6265 -0.9397,0.2088 -1.93162,0.3133 -0.93971,0.1044 -1.98383,0.1044 -4.12428,0 -7.93533,-1.4618 -3.75884,-1.514 -6.839,-4.2809 -3.23678,-2.9236 -4.80296,-6.6824 -1.51398,-3.811 -1.51398,-8.1963 0,-4.0199 1.46177,-7.7788 1.51398,-3.7588 4.33311,-6.6301 2.81913,-2.8714 6.63017,-4.542 3.81105,-1.7228 7.88313,-1.8272 0.10441,0 0.20882,0 0.15662,0 0.26103,0 2.45369,0 4.75076,0.5221 2.34927,0.522 4.59413,1.4618 z"
           style="-inkscape-font-specification:Futura-Bold"
           id="path16444" /><path
           d="m 900.60362,2091.0131 q 8.5096,0.052 15.13977,5.7427 6.63017,5.6382 6.63017,14.5655 0,9.5537 -6.16032,15.6096 -6.10811,6.0559 -15.60962,6.0559 -9.4493,0 -15.60962,-6.0559 -6.16032,-6.0559 -6.16032,-15.6096 0,-8.9273 6.63017,-14.5655 6.63018,-5.6905 15.13977,-5.6905 z m 0,9.9191 q -4.59414,0.052 -7.88312,3.2368 -3.23678,3.1324 -3.23678,7.2045 0,5.064 3.23678,8.4051 3.28898,3.3412 7.88312,3.3412 4.59414,0 7.83092,-3.3412 3.28898,-3.3411 3.28898,-8.4051 0,-4.0721 -3.28898,-7.2045 -3.23678,-3.1845 -7.83092,-3.1845 z"
           style="-inkscape-font-specification:Futura-Bold"
           id="path16446" /><path
           d="m 951.03467,2092.3182 h 10.23239 v 22.1354 q 0,3.8633 -0.62647,7.4655 -0.57427,3.6022 -3.49781,6.4736 -1.87942,1.8794 -4.48973,2.8713 -2.55809,0.9397 -5.27281,1.2529 -0.8353,0.1045 -1.6706,0.1567 -0.83529,0.052 -1.61839,0.052 -0.78309,0 -1.61838,-0.052 -0.8353,-0.052 -1.6706,-0.1567 -2.71472,-0.3132 -5.32502,-1.2529 -2.5581,-0.9919 -4.43752,-2.8713 -2.92354,-2.8714 -3.55002,-6.4736 -0.57426,-3.6022 -0.57426,-7.4133 v -22.1876 h 10.23239 v 20.7259 q 0,0.3654 0,0.6786 0,0.2611 0,0.5743 0.0522,3.55 1.20074,6.5258 1.20074,2.9757 5.74267,2.9757 4.54193,0 5.69047,-2.9757 1.20074,-2.9758 1.25295,-6.5258 0,-0.3132 0,-0.5743 0,-0.3132 0,-0.6264 v -20.7781 z"
           style="-inkscape-font-specification:Futura-Bold"
           id="path16448" /><path
           d="m 988.10098,2115.55 12.37282,16.1316 h -12.73826 l -9.65813,-15.1397 H 977.973 v 15.1397 h -10.2324 v -39.3634 h 15.29639 q 5.84709,0.052 9.76254,2.9758 3.91546,2.8713 3.91546,9.1883 0,4.072 -2.24486,7.2566 -2.19266,3.1324 -6.36915,3.8633 z M 977.973,2100.1492 v 9.8147 h 0.99192 q 0.26103,0.052 0.52206,0.052 0.26103,0 0.46985,0 2.29707,-0.1044 4.17649,-1.0441 1.93163,-0.9919 1.93163,-3.8633 0,-2.8713 -1.93163,-3.811 -1.87942,-0.9919 -4.17649,-1.0963 -0.20882,0 -0.46985,0 -0.26103,0 -0.52206,0 l -0.99192,-0.052 z"
           style="-inkscape-font-specification:Futura-Bold"
           id="path16450" /><path
           d="m 1028.9262,2094.5109 -4.0721,7.9353 q -1.4096,-1.1485 -3.1846,-1.8272 -1.7228,-0.7309 -3.6022,-0.7309 -0.261,0 -0.5742,0.052 -0.3133,0 -0.6265,0.1044 -1.2008,0.2611 -2.1927,1.0442 -0.9919,0.7831 -0.9919,2.0882 0,1.253 0.9397,2.036 0.9397,0.7309 2.0361,1.2008 0.4176,0.1566 0.783,0.3132 0.4177,0.1044 0.7831,0.2088 l 2.6103,0.7309 q 4.1243,1.253 6.8912,3.6545 2.8192,2.3492 2.8192,7.1522 0,0.2088 0,0.4176 0,0.2089 0,0.4177 -0.1044,2.7147 -0.9919,5.325 -0.8875,2.5581 -3.0802,4.4375 -1.9838,1.7228 -4.4897,2.5581 -2.5059,0.8353 -5.1162,1.0442 -0.4177,0 -0.8353,0 -0.3655,0.052 -0.7309,0.052 -3.7066,0 -7.2567,-1.1486 -3.55,-1.2007 -6.5779,-3.289 l 4.3853,-8.3007 q 1.9316,1.7228 4.1765,2.9235 2.297,1.2008 4.9074,1.2008 0.1044,0 0.2088,0 0.1044,0 0.2088,0 1.7228,-0.1045 3.1324,-1.0442 1.4095,-0.9919 1.4095,-2.9235 0,-1.4618 -1.2007,-2.3493 -1.1485,-0.8875 -2.6103,-1.4095 -0.6265,-0.2089 -1.253,-0.3655 -0.6264,-0.2088 -1.1485,-0.3654 -0.1044,-0.052 -0.261,-0.052 -0.1044,-0.052 -0.2088,-0.1045 -4.6464,-1.3051 -7.4133,-3.3411 -2.7669,-2.0361 -2.7669,-7.6221 0,-6.0037 3.811,-9.606 3.8633,-3.6022 9.7625,-3.6022 1.2008,0 2.4537,0.1566 1.253,0.1045 2.5059,0.4177 1.9839,0.4176 3.8633,1.0963 1.9316,0.6787 3.4978,1.5662 z"
           style="-inkscape-font-specification:Futura-Bold"
           id="path16452" /><path
           d="m 1057.7961,2100.9845 h -12.164 v 6.5779 h 11.5375 v 8.6662 h -11.5375 v 6.7868 h 12.164 v 8.6662 h -22.3964 v -39.3634 h 22.3964 v 8.6663 z"
           style="-inkscape-font-specification:Futura-Bold"
           id="path16454" /></g><g
         aria-label="RELAIS SPRINT
"
         id="text16382-2"
         style="font-size:81.8832px;stroke-width:2.55885"><path
           d="m 482.73039,2195.5272 19.40632,25.3019 h -19.9795 l -15.14839,-23.7461 h -0.16377 v 23.7461 h -16.04911 v -61.7399 h 23.99178 q 9.17092,0.082 15.31216,4.6673 6.14124,4.5036 6.14124,14.4115 0,6.3868 -3.52098,11.3817 -3.43909,4.913 -9.98975,6.0594 z m -15.88534,-24.1556 v 15.3941 h 1.55578 q 0.40942,0.082 0.81884,0.082 0.40941,0 0.73694,0 3.60286,-0.1638 6.55066,-1.6377 3.02968,-1.5558 3.02968,-6.0593 0,-4.5036 -3.02968,-5.9775 -2.9478,-1.5558 -6.55066,-1.7196 -0.32753,0 -0.73694,0 -0.40942,0 -0.81884,0 l -1.55578,-0.082 z"
           style="-inkscape-font-specification:Futura-Bold"
           id="path16487" /><path
           d="m 541.60444,2172.6818 h -19.07878 v 10.3173 h 18.09618 v 13.5926 h -18.09618 v 10.6448 h 19.07878 v 13.5926 h -35.12789 v -61.7399 h 35.12789 v 13.5926 z"
           style="-inkscape-font-specification:Futura-Bold"
           id="path16489" /><path
           d="m 567.56135,2159.0892 v 48.1473 h 19.24256 v 13.5926 h -35.29166 v -61.7399 h 16.0491 z"
           style="-inkscape-font-specification:Futura-Bold"
           id="path16491" /><path
           d="m 629.87453,2210.1024 h -22.10846 l -4.25793,10.7267 h -17.0317 l 23.74613,-61.7399 h 17.523 l 23.25483,61.7399 h -17.11359 l -4.01228,-10.7267 z m -4.33981,-12.2825 -6.55065,-19.6519 h -0.16377 l -6.63254,19.6519 h 13.34696 z"
           style="-inkscape-font-specification:Futura-Bold"
           id="path16493" /><path
           d="m 672.04439,2159.0892 v 61.7399 h -16.0491 v -61.7399 h 16.0491 z"
           style="-inkscape-font-specification:Futura-Bold"
           id="path16495" /><path
           d="m 722.81194,2162.5283 -6.38689,12.4462 q -2.21084,-1.8014 -4.99487,-2.8659 -2.70215,-1.1464 -5.64994,-1.1464 -0.40942,0 -0.90072,0.082 -0.4913,0 -0.9826,0.1638 -1.88331,0.4094 -3.43909,1.6376 -1.55578,1.2283 -1.55578,3.2754 0,1.9652 1.47389,3.1934 1.4739,1.1464 3.19345,1.8833 0.65506,0.2457 1.22825,0.4913 0.65506,0.1638 1.22825,0.3276 l 4.09416,1.1463 q 6.46877,1.9652 10.80858,5.7319 4.42169,3.6847 4.42169,11.218 0,0.3275 0,0.655 0,0.3275 0,0.6551 -0.16377,4.2579 -1.55578,8.3521 -1.39201,4.0122 -4.83111,6.96 -3.11156,2.7022 -7.04195,4.0123 -3.9304,1.3101 -8.02456,1.6377 -0.65506,0 -1.31013,0 -0.57318,0.082 -1.14636,0.082 -5.81371,0 -11.38177,-1.8015 -5.56806,-1.8833 -10.31728,-5.1586 l 6.87819,-13.0194 q 3.02968,2.7021 6.55065,4.5854 3.60286,1.8833 7.69702,1.8833 0.16377,0 0.32754,0 0.16376,0 0.32753,0 2.70214,-0.1637 4.91299,-1.6376 2.21085,-1.5558 2.21085,-4.5855 0,-2.2927 -1.88332,-3.6847 -1.80143,-1.392 -4.09416,-2.2109 -0.98259,-0.3275 -1.96519,-0.5732 -0.9826,-0.3275 -1.80143,-0.5731 -0.16377,-0.082 -0.40942,-0.082 -0.16377,-0.082 -0.32753,-0.1638 -7.28761,-2.0471 -11.62742,-5.2405 -4.33981,-3.1935 -4.33981,-11.955 0,-9.4165 5.97748,-15.0665 6.05935,-5.6499 15.31216,-5.6499 1.88331,0 3.84851,0.2456 1.96519,0.1638 3.93039,0.6551 3.11156,0.6551 6.05936,1.7195 3.02968,1.0645 5.48617,2.4565 z"
           style="-inkscape-font-specification:Futura-Bold"
           id="path16497" /><path
           d="m 801.33788,2162.5283 -6.38689,12.4462 q -2.21084,-1.8014 -4.99487,-2.8659 -2.70215,-1.1464 -5.64994,-1.1464 -0.40942,0 -0.90072,0.082 -0.4913,0 -0.9826,0.1638 -1.88331,0.4094 -3.43909,1.6376 -1.55578,1.2283 -1.55578,3.2754 0,1.9652 1.47389,3.1934 1.4739,1.1464 3.19345,1.8833 0.65506,0.2457 1.22825,0.4913 0.65506,0.1638 1.22825,0.3276 l 4.09416,1.1463 q 6.46877,1.9652 10.80858,5.7319 4.42169,3.6847 4.42169,11.218 0,0.3275 0,0.655 0,0.3275 0,0.6551 -0.16377,4.2579 -1.55578,8.3521 -1.39201,4.0122 -4.83111,6.96 -3.11156,2.7022 -7.04195,4.0123 -3.9304,1.3101 -8.02456,1.6377 -0.65506,0 -1.31013,0 -0.57318,0.082 -1.14636,0.082 -5.81371,0 -11.38177,-1.8015 -5.56806,-1.8833 -10.31728,-5.1586 l 6.87819,-13.0194 q 3.02967,2.7021 6.55065,4.5854 3.60286,1.8833 7.69702,1.8833 0.16377,0 0.32754,0 0.16376,0 0.32753,0 2.70214,-0.1637 4.91299,-1.6376 2.21085,-1.5558 2.21085,-4.5855 0,-2.2927 -1.88332,-3.6847 -1.80143,-1.392 -4.09416,-2.2109 -0.98259,-0.3275 -1.96519,-0.5732 -0.9826,-0.3275 -1.80143,-0.5731 -0.16377,-0.082 -0.40942,-0.082 -0.16377,-0.082 -0.32753,-0.1638 -7.28761,-2.0471 -11.62742,-5.2405 -4.33981,-3.1935 -4.33981,-11.955 0,-9.4165 5.97748,-15.0665 6.05935,-5.6499 15.31216,-5.6499 1.88331,0 3.84851,0.2456 1.96519,0.1638 3.93039,0.6551 3.11156,0.6551 6.05936,1.7195 3.02968,1.0645 5.48617,2.4565 z"
           style="-inkscape-font-specification:Futura-Bold"
           id="path16499" /><path
           d="m 811.49135,2220.8291 v -61.7399 h 24.56496 q 9.98975,0.082 16.21287,4.913 6.22313,4.8311 6.22313,15.4759 0,10.8905 -5.73183,15.9672 -5.64994,4.9949 -16.13099,4.9949 l -9.08903,-0.082 v 20.4708 h -16.04911 z m 16.04911,-48.8024 v 15.3941 h 2.70214 q 4.33981,0.082 7.94267,-0.8189 3.60286,-0.9826 3.60286,-6.6325 0,-5.8137 -3.43909,-6.7963 -3.4391,-1.0645 -8.10644,-1.0645 l -2.70214,-0.082 z"
           style="-inkscape-font-specification:Futura-Bold"
           id="path16501" /><path
           d="m 897.55052,2195.5272 19.40632,25.3019 h -19.9795 l -15.14839,-23.7461 h -0.16377 v 23.7461 h -16.04911 v -61.7399 h 23.99178 q 9.17092,0.082 15.31216,4.6673 6.14124,4.5036 6.14124,14.4115 0,6.3868 -3.52098,11.3817 -3.43909,4.913 -9.98975,6.0594 z m -15.88534,-24.1556 v 15.3941 h 1.55578 q 0.40942,0.082 0.81883,0.082 0.40942,0 0.73695,0 3.60286,-0.1638 6.55066,-1.6377 3.02968,-1.5558 3.02968,-6.0593 0,-4.5036 -3.02968,-5.9775 -2.9478,-1.5558 -6.55066,-1.7196 -0.32753,0 -0.73695,0 -0.40941,0 -0.81883,0 l -1.55578,-0.082 z"
           style="-inkscape-font-specification:Futura-Bold"
           id="path16503" /><path
           d="m 937.34578,2159.0892 v 61.7399 h -16.0491 v -61.7399 h 16.0491 z"
           style="-inkscape-font-specification:Futura-Bold"
           id="path16505" /><path
           d="m 947.8268,2220.8291 v -61.7399 h 16.04911 l 29.39606,37.7481 h 0.16377 v -37.7481 h 16.04906 v 61.7399 h -16.04906 l -29.39607,-37.83 h -0.16376 v 37.83 H 947.8268 Z"
           style="-inkscape-font-specification:Futura-Bold"
           id="path16507" /><path
           d="m 1044.5309,2172.6818 v 48.1473 h -16.0491 v -48.1473 h -13.2651 v -13.5926 h 42.5793 v 13.5926 h -13.2651 z"
           style="-inkscape-font-specification:Futura-Bold"
           id="path16509" /></g></g></g></svg>
