<?xml version="1.0" encoding="UTF-8" standalone="no"?>
<svg
   width="257.74966"
   height="115"
   xml:space="preserve"
   overflow="hidden"
   version="1.1"
   id="svg33"
   sodipodi:docname="txt_BulletinWRE2.svg"
   inkscape:version="1.2.2 (732a01da63, 2022-12-09)"
   xmlns:inkscape="http://www.inkscape.org/namespaces/inkscape"
   xmlns:sodipodi="http://sodipodi.sourceforge.net/DTD/sodipodi-0.dtd"
   xmlns="http://www.w3.org/2000/svg"
   xmlns:svg="http://www.w3.org/2000/svg"><sodipodi:namedview
     id="namedview35"
     pagecolor="#ffffff"
     bordercolor="#666666"
     borderopacity="1.0"
     inkscape:showpageshadow="2"
     inkscape:pageopacity="0.0"
     inkscape:pagecheckerboard="0"
     inkscape:deskcolor="#d1d1d1"
     showgrid="false"
     inkscape:zoom="1.6140481"
     inkscape:cx="391.56206"
     inkscape:cy="121.4338"
     inkscape:window-width="1366"
     inkscape:window-height="705"
     inkscape:window-x="-8"
     inkscape:window-y="-8"
     inkscape:window-maximized="1"
     inkscape:current-layer="svg33" /><defs
     id="defs5"><clipPath
       id="clip0"><rect
         x="355"
         y="557"
         width="215"
         height="115"
         id="rect2" /></clipPath><clipPath
       clipPathUnits="userSpaceOnUse"
       id="clipPath1520"><g
         id="g1524"><rect
           x="0"
           y="0"
           width="215"
           height="115"
           id="rect1522" /></g></clipPath><clipPath
       clipPathUnits="userSpaceOnUse"
       id="clipPath1514"><g
         id="g1518"><rect
           x="0"
           y="0"
           width="215"
           height="115"
           id="rect1516" /></g></clipPath><clipPath
       clipPathUnits="userSpaceOnUse"
       id="clipPath1508"><g
         id="g1512"><rect
           x="0"
           y="0"
           width="215"
           height="115"
           id="rect1510" /></g></clipPath><clipPath
       clipPathUnits="userSpaceOnUse"
       id="clipPath1502"><g
         id="g1506"><rect
           x="0"
           y="0"
           width="215"
           height="115"
           id="rect1504" /></g></clipPath><clipPath
       clipPathUnits="userSpaceOnUse"
       id="clipPath1496"><g
         id="g1500"><rect
           x="0"
           y="0"
           width="215"
           height="115"
           id="rect1498" /></g></clipPath><clipPath
       clipPathUnits="userSpaceOnUse"
       id="clipPath1490"><g
         id="g1494"><rect
           x="0"
           y="0"
           width="215"
           height="115"
           id="rect1492" /></g></clipPath><clipPath
       clipPathUnits="userSpaceOnUse"
       id="clipPath1484"><g
         id="g1488"><rect
           x="0"
           y="0"
           width="215"
           height="115"
           id="rect1486" /></g></clipPath><clipPath
       clipPathUnits="userSpaceOnUse"
       id="clipPath1478"><g
         id="g1482"><rect
           x="0"
           y="0"
           width="215"
           height="115"
           id="rect1480" /></g></clipPath><clipPath
       clipPathUnits="userSpaceOnUse"
       id="clipPath1472"><g
         id="g1476"><rect
           x="0"
           y="0"
           width="215"
           height="115"
           id="rect1474" /></g></clipPath><clipPath
       clipPathUnits="userSpaceOnUse"
       id="clipPath1466"><g
         id="g1470"><rect
           x="0"
           y="0"
           width="215"
           height="115"
           id="rect1468" /></g></clipPath><clipPath
       clipPathUnits="userSpaceOnUse"
       id="clipPath1460"><g
         id="g1464"><rect
           x="0"
           y="0"
           width="215"
           height="115"
           id="rect1462" /></g></clipPath><clipPath
       clipPathUnits="userSpaceOnUse"
       id="clipPath1454"><g
         id="g1458"><rect
           x="0"
           y="0"
           width="215"
           height="115"
           id="rect1456" /></g></clipPath></defs><rect
     style="fill:#a9d33b;stroke-width:12.9083"
     id="rect342"
     width="258.97617"
     height="115.85776"
     x="0"
     y="0" /><g
     clip-path="url(#clip0)"
     transform="translate(-355,-557)"
     id="g31"><path
       d="m 399.748,606.564 h -9.664 v -24.128 h 8.96 c 2.155,0.021 3.883,0.501 5.184,1.44 1.323,0.939 1.984,2.56 1.984,4.864 0,1.088 -0.203,2.059 -0.608,2.912 -0.384,0.853 -1.067,1.525 -2.048,2.016 v 0.032 c 1.728,0.235 2.976,0.907 3.744,2.016 0.789,1.088 1.184,2.475 1.184,4.16 0,2.517 -0.907,4.267 -2.72,5.248 -1.792,0.96 -3.797,1.44 -6.016,1.44 z m -3.392,-9.984 v 5.184 h 0.8 c 0.021,0.021 0.043,0.032 0.064,0.032 0.043,0 0.085,0 0.128,0 0.256,0 0.523,0 0.8,0 0.277,0 0.555,-0.011 0.832,-0.032 0.789,-0.064 1.515,-0.267 2.176,-0.608 0.661,-0.341 0.992,-0.981 0.992,-1.92 0,-1.088 -0.363,-1.792 -1.088,-2.112 -0.725,-0.32 -1.515,-0.491 -2.368,-0.512 -0.192,0 -0.395,0 -0.608,0 -0.192,0 -0.384,0 -0.576,0 -0.085,0 -0.171,0 -0.256,0 -0.085,0 -0.171,0 -0.256,0 z m 0,-9.344 v 4.672 h 0.704 c 0.021,0.021 0.043,0.032 0.064,0.032 0.043,0 0.085,0 0.128,0 0.789,-0.021 1.515,-0.171 2.176,-0.448 0.683,-0.277 1.024,-0.907 1.024,-1.888 0,-0.981 -0.32,-1.611 -0.96,-1.888 -0.64,-0.277 -1.333,-0.427 -2.08,-0.448 -0.107,0 -0.213,0 -0.32,0 -0.085,0 -0.181,0 -0.288,0 z"
       fill="#ffffff"
       id="path9" /><path
       d="m 426.404,582.436 h 6.272 v 13.568 c 0,1.579 -0.128,3.104 -0.384,4.576 -0.235,1.472 -0.949,2.795 -2.144,3.968 -0.768,0.768 -1.685,1.355 -2.752,1.76 -1.045,0.384 -2.123,0.64 -3.232,0.768 -0.341,0.043 -0.683,0.075 -1.024,0.096 -0.341,0.021 -0.672,0.032 -0.992,0.032 -0.32,0 -0.651,-0.011 -0.992,-0.032 -0.341,-0.021 -0.683,-0.053 -1.024,-0.096 -1.109,-0.128 -2.197,-0.384 -3.264,-0.768 -1.045,-0.405 -1.952,-0.992 -2.72,-1.76 -1.195,-1.173 -1.92,-2.496 -2.176,-3.968 -0.235,-1.472 -0.352,-2.987 -0.352,-4.544 v -13.6 h 6.272 v 12.704 c 0,0.149 0,0.288 0,0.416 0,0.107 0,0.224 0,0.352 0.021,1.451 0.267,2.784 0.736,4 0.491,1.216 1.664,1.824 3.52,1.824 1.856,0 3.019,-0.608 3.488,-1.824 0.491,-1.216 0.747,-2.549 0.768,-4 0,-0.128 0,-0.245 0,-0.352 0,-0.128 0,-0.256 0,-0.384 z"
       fill="#ffffff"
       id="path11" /><path
       d="m 442.916,582.436 v 18.816 h 7.52 v 5.312 h -13.792 v -24.128 z"
       fill="#ffffff"
       id="path13" /><path
       d="m 458.756,582.436 v 18.816 h 7.52 v 5.312 h -13.792 v -24.128 z"
       fill="#ffffff"
       id="path15" /><path
       d="m 482.052,587.748 h -7.456 v 4.032 h 7.072 v 5.312 h -7.072 v 4.16 h 7.456 v 5.312 h -13.728 v -24.128 h 13.728 z"
       fill="#ffffff"
       id="path17" /><path
       d="m 495.524,587.748 v 18.816 h -6.272 v -18.816 h -5.184 v -5.312 h 16.64 v 5.312 z"
       fill="#ffffff"
       id="path19" /><path
       d="m 509.252,582.436 v 24.128 h -6.272 v -24.128 z"
       fill="#ffffff"
       id="path21" /><path
       d="m 513.348,606.564 v -24.128 h 6.272 l 11.488,14.752 h 0.064 v -14.752 h 6.272 v 24.128 h -6.272 L 519.684,591.78 h -0.064 v 14.784 z"
       fill="#ffffff"
       id="path23" /><path
       d="m 394.084,622.436 4.192,15.584 h 0.064 l 5.056,-15.584 h 4.992 l 4.736,15.584 h 0.064 l 4.544,-15.584 h 6.528 l -7.712,24.128 h -6.4 l -4.224,-13.984 h -0.064 l -4.736,13.984 h -6.368 l -7.2,-24.128 z"
       fill="#ffffff"
       id="path25" /><path
       d="m 438.308,636.676 7.584,9.888 h -7.808 l -5.92,-9.28 H 432.1 v 9.28 h -6.272 v -24.128 h 9.376 c 2.389,0.021 4.384,0.629 5.984,1.824 1.6,1.173 2.4,3.051 2.4,5.632 0,1.664 -0.459,3.147 -1.376,4.448 -0.896,1.28 -2.197,2.069 -3.904,2.368 z m -6.208,-9.44 v 6.016 h 0.608 c 0.107,0.021 0.213,0.032 0.32,0.032 0.107,0 0.203,0 0.288,0 0.939,-0.043 1.792,-0.256 2.56,-0.64 0.789,-0.405 1.184,-1.195 1.184,-2.368 0,-1.173 -0.395,-1.952 -1.184,-2.336 -0.768,-0.405 -1.621,-0.629 -2.56,-0.672 -0.085,0 -0.181,0 -0.288,0 -0.107,0 -0.213,0 -0.32,0 z"
       fill="#ffffff"
       id="path27" /><path
       d="m 461.316,627.748 h -7.456 v 4.032 h 7.072 v 5.312 h -7.072 v 4.16 h 7.456 v 5.312 h -13.728 v -24.128 h 13.728 z"
       fill="#ffffff"
       id="path29" /></g><g
     aria-label="#2 (en)"
     id="text318"
     style="font-size:32px;line-height:1.25;font-family:Futura-Bold;-inkscape-font-specification:'Futura-Bold, Normal';fill:#ffffff"><path
       d="m 125.57688,66.332003 h 3.392 l -1.248,6.496 h 3.232 l 1.248,-6.496 h 3.36 l -1.248,6.496 h 2.56 v 3.616 h -3.136 l -0.768,3.968 h 3.008 v 3.616 h -3.776 l -1.056,5.536 h -3.392 l 1.056,-5.536 h -3.232 l -1.056,5.536 h -3.392 l 1.056,-5.536 h -2.912 v -3.616 h 3.616 l 0.768,-3.968 h -3.072 v -3.616 h 3.744 l 1.248,-6.496 z m 1.472,10.112 -0.768,3.968 h 3.264 l 0.832,-3.968 h -3.328 z"
       id="path1182" /><path
       d="m 151.5929,84.252003 h 7.904 v 5.312 h -19.392 l 9.856,-10.72 q 1.056,-1.12 1.888,-2.656 0.864,-1.568 0.864,-3.232 0,-0.032 0,-0.064 0,-0.064 0,-0.128 -0.064,-1.088 -0.8,-2.016 -0.736,-0.928 -1.952,-0.928 -1.28,0 -1.952,0.864 -0.672,0.864 -0.672,2.08 0,0.224 0.032,0.512 0.032,0.256 0.064,0.512 l -6.912,-0.032 q 0.16,-4.128 2.656,-6.688 2.496,-2.56 6.752,-2.56 3.808,0 6.56,2.336 2.752,2.304 2.752,6.24 0,2.24 -0.768,3.808 -0.768,1.568 -2.208,3.008 -0.224,0.224 -0.448,0.448 -0.224,0.224 -0.48,0.448 l -3.744,3.456 z"
       id="path1184" /><path
       d="m 178.18494,64.284003 3.488,1.984 q -1.408,2.304 -2.24,4.96 -0.832,2.656 -1.184,5.376 -0.128,1.088 -0.192,2.144 -0.064,1.056 -0.064,2.08 0,1.376 0.128,2.912 0.16,1.504 0.448,3.072 0.416,2.304 1.184,4.512 0.768,2.208 1.92,3.936 l -3.488,1.984 q -1.568,-2.048 -2.56,-4.736 -0.96,-2.656 -1.472,-5.408 -0.32,-1.728 -0.48,-3.424 -0.128,-1.696 -0.128,-3.232 0,-1.44 0.128,-2.944 0.16,-1.536 0.48,-3.104 0.512,-2.752 1.504,-5.376 1.024,-2.624 2.528,-4.704 z"
       id="path1186" /><path
       d="m 202.02492,81.724003 v 0.608 h -12.256 q 0,1.792 0.928,2.752 0.928,0.928 2.72,0.928 0.928,0 1.6,-0.352 0.704,-0.352 1.184,-1.152 l 5.6,-0.032 q -0.704,2.944 -3.136,4.288 -2.4,1.344 -5.216,1.344 -4.064,0 -6.784,-2.208 -2.72,-2.24 -2.72,-6.496 0,-4.096 2.528,-6.432 2.56,-2.336 6.56,-2.336 4.288,0 6.624,2.464 2.368,2.464 2.368,6.656 z m -12.16,-2.752 h 6.752 q -0.224,-1.152 -1.184,-1.856 -0.928,-0.704 -2.112,-0.704 -1.28,0 -2.24,0.672 -0.96,0.64 -1.216,1.92 z"
       id="path1188" /><path
       d="m 210.50494,73.148003 v 2.112 h 0.064 q 1.024,-1.472 2.272,-2.048 1.28,-0.576 2.976,-0.576 3.328,0 4.736,1.888 1.44,1.888 1.44,4.928 v 10.112 h -5.824 v -8 q 0,-0.064 0,-0.16 0,-0.096 0,-0.192 0,-0.288 0,-0.608 0,-0.32 -0.032,-0.64 -0.064,-0.992 -0.576,-1.824 -0.512,-0.864 -2.016,-0.864 -1.76,0 -2.4,1.152 -0.64,1.12 -0.64,2.656 v 8.48 h -5.824 v -16.416 h 5.824 z"
       id="path1190" /><path
       d="m 225.48092,66.268003 3.488,-1.984 q 1.504,2.112 2.496,4.736 1.024,2.624 1.536,5.376 0.32,1.568 0.448,3.104 0.16,1.504 0.16,2.944 0,1.536 -0.16,3.232 -0.128,1.696 -0.448,3.424 -0.512,2.752 -1.504,5.408 -0.96,2.688 -2.528,4.736 l -3.488,-1.984 q 1.152,-1.728 1.92,-3.936 0.768,-2.208 1.184,-4.512 0.288,-1.568 0.416,-3.072 0.16,-1.536 0.16,-2.912 0,-1.024 -0.064,-2.08 -0.064,-1.056 -0.192,-2.144 -0.352,-2.72 -1.184,-5.376 -0.832,-2.656 -2.24,-4.928 z"
       id="path1192" /></g></svg>
